…
```r
res$eel_month <- tolower(res$eel_month)
# removing whole year and missing year
resw <- res[res$eel_month%in%c("whole year"),]
print(resw)
```

```
## # A tibble: 68 x 14
##    eel_typ_name eel_year eel_month eel_value eel_missvaluequ~
##    <chr>           <dbl> <chr>         <dbl> <chr>           
##  1 com_landing~     2000 whole ye~    35489  <NA>            
##  2 com_landing~     2001 whole ye~    30402  <NA>            
##  3 com_landing~     2017 whole ye~        0  <NA>            
##  4 com_landing~     2000 whole ye~   281152. NM              
##  5 com_landing~     2000 whole ye~     1149  NM              
##  6 com_landing~     2000 whole ye~      860  NM              
##  7 com_landing~     2001 whole ye~      804  NM              
##  8 com_landing~     2001 whole ye~      316  NM              
##  9 com_landing~     2002 whole ye~     1450  NM              
## 10 com_landing~     2002 whole ye~      671  NM              
## # ... with 58 more rows, and 9 more variables: eel_emu_nameshort <chr>,
## #   eel_cou_code <chr>, eel_lfs_code <chr>, eel_hty_code <chr>,
## #   eel_area_division <chr>, eel_comment <chr>, source <chr>,
## #   country <chr>, datasource <chr>
```
…
